<?xml version="1.0" encoding="UTF-8" standalone="no"?>
<svg
   xmlns:dc="http://purl.org/dc/elements/1.1/"
   xmlns:cc="http://creativecommons.org/ns#"
   xmlns:rdf="http://www.w3.org/1999/02/22-rdf-syntax-ns#"
   xmlns:svg="http://www.w3.org/2000/svg"
   xmlns="http://www.w3.org/2000/svg"
   xmlns:xlink="http://www.w3.org/1999/xlink"
   xmlns:sodipodi="http://sodipodi.sourceforge.net/DTD/sodipodi-0.dtd"
   xmlns:inkscape="http://www.inkscape.org/namespaces/inkscape"
   width="128"
   height="128"
   version="1.1"
   viewBox="0 0 128 128"
   id="svg5969"
   inkscape:version="0.92.5 (2060ec1f9f, 2020-04-08)"
   sodipodi:docname="icon_gizmo_boid_target_static_off.svg">
  <metadata
     id="metadata5979">
    <rdf:RDF>
      <cc:Work
         rdf:about="">
        <dc:format>image/svg+xml</dc:format>
        <dc:type
           rdf:resource="http://purl.org/dc/dcmitype/StillImage" />
        <dc:title></dc:title>
      </cc:Work>
    </rdf:RDF>
  </metadata>
  <defs
     id="defs5977">
    <pattern
       inkscape:collect="always"
       xlink:href="#pattern4361-36"
       id="pattern5108"
       patternTransform="translate(0,1052.3622)" />
    <pattern
       patternUnits="userSpaceOnUse"
       width="100"
       height="100"
       patternTransform="translate(0,952.36218)"
       id="pattern4361-36">
      <rect
         y="0"
         x="0"
         height="100"
         width="100"
         id="rect4359-7"
         style="opacity:1;fill:#000000;fill-opacity:1;stroke:none;stroke-width:2;stroke-linecap:round;stroke-linejoin:bevel;stroke-miterlimit:4;stroke-dasharray:6, 6;stroke-dashoffset:0;stroke-opacity:1" />
    </pattern>
    <pattern
       inkscape:collect="always"
       xlink:href="#pattern5112"
       id="pattern5132"
       patternTransform="translate(200,1152.3622)" />
    <pattern
       inkscape:collect="always"
       xlink:href="#pattern5088"
       id="pattern5112"
       patternTransform="translate(200,1052.3622)" />
    <pattern
       inkscape:collect="always"
       xlink:href="#pattern5084"
       id="pattern5088"
       patternTransform="translate(200,952.36218)" />
    <pattern
       inkscape:collect="always"
       xlink:href="#pattern4361-36"
       id="pattern5084"
       patternTransform="translate(100,952.36218)" />
    <pattern
       patternUnits="userSpaceOnUse"
       width="100"
       height="100"
       patternTransform="translate(0,952.36218)"
       id="pattern2293">
      <rect
         y="0"
         x="0"
         height="100"
         width="100"
         id="rect2291"
         style="opacity:1;fill:#000000;fill-opacity:1;stroke:none;stroke-width:2;stroke-linecap:round;stroke-linejoin:bevel;stroke-miterlimit:4;stroke-dasharray:6, 6;stroke-dashoffset:0;stroke-opacity:1" />
    </pattern>
    <pattern
       inkscape:collect="always"
       xlink:href="#pattern5132"
       id="pattern2297"
       patternTransform="translate(200,1252.3622)" />
    <pattern
       inkscape:collect="always"
       xlink:href="#pattern5112"
       id="pattern2299"
       patternTransform="translate(200,1152.3622)" />
    <pattern
       inkscape:collect="always"
       xlink:href="#pattern5088"
       id="pattern2301"
       patternTransform="translate(200,1052.3622)" />
    <pattern
       inkscape:collect="always"
       xlink:href="#pattern5084"
       id="pattern2303"
       patternTransform="translate(200,952.36218)" />
    <pattern
       inkscape:collect="always"
       xlink:href="#pattern4361-36"
       id="pattern2305"
       patternTransform="translate(100,952.36218)" />
    <pattern
       patternUnits="userSpaceOnUse"
       width="100"
       height="100"
       patternTransform="translate(0,952.36218)"
       id="pattern2309">
      <rect
         y="0"
         x="0"
         height="100"
         width="100"
         id="rect2307"
         style="opacity:1;fill:#000000;fill-opacity:1;stroke:none;stroke-width:2;stroke-linecap:round;stroke-linejoin:bevel;stroke-miterlimit:4;stroke-dasharray:6, 6;stroke-dashoffset:0;stroke-opacity:1" />
    </pattern>
    <pattern
       inkscape:collect="always"
       xlink:href="#pattern5092"
       id="pattern5096"
       patternTransform="translate(400,952.36218)" />
    <pattern
       inkscape:collect="always"
       xlink:href="#pattern5088"
       id="pattern5092"
       patternTransform="translate(300,952.36218)" />
    <pattern
       inkscape:collect="always"
       xlink:href="#pattern5084"
       id="pattern2317"
       patternTransform="translate(200,952.36218)" />
    <pattern
       inkscape:collect="always"
       xlink:href="#pattern4361-36"
       id="pattern2319"
       patternTransform="translate(100,952.36218)" />
    <pattern
       patternUnits="userSpaceOnUse"
       width="100"
       height="100"
       patternTransform="translate(0,952.36218)"
       id="pattern2323">
      <rect
         y="0"
         x="0"
         height="100"
         width="100"
         id="rect2321"
         style="opacity:1;fill:#000000;fill-opacity:1;stroke:none;stroke-width:2;stroke-linecap:round;stroke-linejoin:bevel;stroke-miterlimit:4;stroke-dasharray:6, 6;stroke-dashoffset:0;stroke-opacity:1" />
    </pattern>
    <pattern
       inkscape:collect="always"
       xlink:href="#pattern5112"
       id="pattern2327"
       patternTransform="translate(200,1152.3622)" />
    <pattern
       inkscape:collect="always"
       xlink:href="#pattern5088"
       id="pattern2329"
       patternTransform="translate(200,1052.3622)" />
    <pattern
       inkscape:collect="always"
       xlink:href="#pattern5084"
       id="pattern2331"
       patternTransform="translate(200,952.36218)" />
    <pattern
       inkscape:collect="always"
       xlink:href="#pattern4361-36"
       id="pattern2333"
       patternTransform="translate(100,952.36218)" />
    <pattern
       patternUnits="userSpaceOnUse"
       width="100"
       height="100"
       patternTransform="translate(0,952.36218)"
       id="pattern2337">
      <rect
         y="0"
         x="0"
         height="100"
         width="100"
         id="rect2335"
         style="opacity:1;fill:#000000;fill-opacity:1;stroke:none;stroke-width:2;stroke-linecap:round;stroke-linejoin:bevel;stroke-miterlimit:4;stroke-dasharray:6, 6;stroke-dashoffset:0;stroke-opacity:1" />
    </pattern>
    <pattern
       inkscape:collect="always"
       xlink:href="#pattern4361-36"
       id="pattern2343"
       patternTransform="translate(100,952.36218)" />
    <pattern
       patternUnits="userSpaceOnUse"
       width="100"
       height="100"
       patternTransform="translate(0,952.36218)"
       id="pattern2347">
      <rect
         y="0"
         x="0"
         height="100"
         width="100"
         id="rect2345"
         style="opacity:1;fill:#000000;fill-opacity:1;stroke:none;stroke-width:2;stroke-linecap:round;stroke-linejoin:bevel;stroke-miterlimit:4;stroke-dasharray:6, 6;stroke-dashoffset:0;stroke-opacity:1" />
    </pattern>
    <pattern
       inkscape:collect="always"
       xlink:href="#pattern5108"
       id="pattern2351"
       patternTransform="translate(0,1152.3622)" />
    <pattern
       inkscape:collect="always"
       xlink:href="#pattern4361-36"
       id="pattern2353"
       patternTransform="translate(0,1052.3622)" />
    <pattern
       patternUnits="userSpaceOnUse"
       width="100"
       height="100"
       patternTransform="translate(0,952.36218)"
       id="pattern2357">
      <rect
         y="0"
         x="0"
         height="100"
         width="100"
         id="rect2355"
         style="opacity:1;fill:#000000;fill-opacity:1;stroke:none;stroke-width:2;stroke-linecap:round;stroke-linejoin:bevel;stroke-miterlimit:4;stroke-dasharray:6, 6;stroke-dashoffset:0;stroke-opacity:1" />
    </pattern>
    <pattern
       inkscape:collect="always"
       xlink:href="#pattern5096"
       id="pattern2361"
       patternTransform="translate(400,1052.3622)" />
    <pattern
       inkscape:collect="always"
       xlink:href="#pattern5092"
       id="pattern2363"
       patternTransform="translate(400,952.36218)" />
    <pattern
       inkscape:collect="always"
       xlink:href="#pattern5088"
       id="pattern2365"
       patternTransform="translate(300,952.36218)" />
    <pattern
       inkscape:collect="always"
       xlink:href="#pattern5084"
       id="pattern2367"
       patternTransform="translate(200,952.36218)" />
    <pattern
       inkscape:collect="always"
       xlink:href="#pattern4361-36"
       id="pattern2369"
       patternTransform="translate(100,952.36218)" />
    <pattern
       patternUnits="userSpaceOnUse"
       width="100"
       height="100"
       patternTransform="translate(0,952.36218)"
       id="pattern2373">
      <rect
         y="0"
         x="0"
         height="100"
         width="100"
         id="rect2371"
         style="opacity:1;fill:#000000;fill-opacity:1;stroke:none;stroke-width:2;stroke-linecap:round;stroke-linejoin:bevel;stroke-miterlimit:4;stroke-dasharray:6, 6;stroke-dashoffset:0;stroke-opacity:1" />
    </pattern>
    <pattern
       inkscape:collect="always"
       xlink:href="#pattern5092"
       id="pattern2377"
       patternTransform="translate(400,952.36218)" />
    <pattern
       inkscape:collect="always"
       xlink:href="#pattern5088"
       id="pattern2379"
       patternTransform="translate(300,952.36218)" />
    <pattern
       inkscape:collect="always"
       xlink:href="#pattern5084"
       id="pattern2381"
       patternTransform="translate(200,952.36218)" />
    <pattern
       inkscape:collect="always"
       xlink:href="#pattern4361-36"
       id="pattern2383"
       patternTransform="translate(100,952.36218)" />
    <pattern
       patternUnits="userSpaceOnUse"
       width="100"
       height="100"
       patternTransform="translate(0,952.36218)"
       id="pattern2387">
      <rect
         y="0"
         x="0"
         height="100"
         width="100"
         id="rect2385"
         style="opacity:1;fill:#000000;fill-opacity:1;stroke:none;stroke-width:2;stroke-linecap:round;stroke-linejoin:bevel;stroke-miterlimit:4;stroke-dasharray:6, 6;stroke-dashoffset:0;stroke-opacity:1" />
    </pattern>
    <pattern
       inkscape:collect="always"
       xlink:href="#pattern5088"
       id="pattern2391"
       patternTransform="translate(300,952.36218)" />
    <pattern
       inkscape:collect="always"
       xlink:href="#pattern5084"
       id="pattern2393"
       patternTransform="translate(200,952.36218)" />
    <pattern
       inkscape:collect="always"
       xlink:href="#pattern4361-36"
       id="pattern2395"
       patternTransform="translate(100,952.36218)" />
    <pattern
       patternUnits="userSpaceOnUse"
       width="100"
       height="100"
       patternTransform="translate(0,952.36218)"
       id="pattern2399">
      <rect
         y="0"
         x="0"
         height="100"
         width="100"
         id="rect2397"
         style="opacity:1;fill:#000000;fill-opacity:1;stroke:none;stroke-width:2;stroke-linecap:round;stroke-linejoin:bevel;stroke-miterlimit:4;stroke-dasharray:6, 6;stroke-dashoffset:0;stroke-opacity:1" />
    </pattern>
    <pattern
       inkscape:collect="always"
       xlink:href="#pattern5084"
       id="pattern2403"
       patternTransform="translate(200,952.36218)" />
    <pattern
       inkscape:collect="always"
       xlink:href="#pattern4361-36"
       id="pattern2405"
       patternTransform="translate(100,952.36218)" />
    <pattern
       patternUnits="userSpaceOnUse"
       width="100"
       height="100"
       patternTransform="translate(0,952.36218)"
       id="pattern2409">
      <rect
         y="0"
         x="0"
         height="100"
         width="100"
         id="rect2407"
         style="opacity:1;fill:#000000;fill-opacity:1;stroke:none;stroke-width:2;stroke-linecap:round;stroke-linejoin:bevel;stroke-miterlimit:4;stroke-dasharray:6, 6;stroke-dashoffset:0;stroke-opacity:1" />
    </pattern>
    <pattern
       inkscape:collect="always"
       xlink:href="#pattern5114"
       id="pattern5134"
       patternTransform="translate(300,1152.3622)" />
    <pattern
       inkscape:collect="always"
       xlink:href="#pattern5092-3"
       id="pattern5114"
       patternTransform="translate(300,1052.3622)" />
    <pattern
       inkscape:collect="always"
       xlink:href="#pattern5088-6"
       id="pattern5092-3"
       patternTransform="translate(300,952.36218)" />
    <pattern
       inkscape:collect="always"
       xlink:href="#pattern5084-7"
       id="pattern5088-6"
       patternTransform="translate(200,952.36218)" />
    <pattern
       inkscape:collect="always"
       xlink:href="#pattern4361-36-5"
       id="pattern5084-7"
       patternTransform="translate(100,952.36218)" />
    <pattern
       patternUnits="userSpaceOnUse"
       width="100"
       height="100"
       patternTransform="translate(0,952.36218)"
       id="pattern4361-36-5">
      <rect
         y="0"
         x="0"
         height="100"
         width="100"
         id="rect4359-7-3"
         style="opacity:1;fill:#000000;fill-opacity:1;stroke:none;stroke-width:2;stroke-linecap:round;stroke-linejoin:bevel;stroke-miterlimit:4;stroke-dasharray:6, 6;stroke-dashoffset:0;stroke-opacity:1" />
    </pattern>
    <pattern
       inkscape:collect="always"
       xlink:href="#pattern5110"
       id="pattern5130"
       patternTransform="translate(100,1152.3622)" />
    <pattern
       inkscape:collect="always"
       xlink:href="#pattern5084-7"
       id="pattern5110"
       patternTransform="translate(100,1052.3622)" />
    <pattern
       inkscape:collect="always"
       xlink:href="#pattern4361-36-5"
       id="pattern2968"
       patternTransform="translate(100,952.36218)" />
    <pattern
       patternUnits="userSpaceOnUse"
       width="100"
       height="100"
       patternTransform="translate(0,952.36218)"
       id="pattern2972">
      <rect
         y="0"
         x="0"
         height="100"
         width="100"
         id="rect2970"
         style="opacity:1;fill:#000000;fill-opacity:1;stroke:none;stroke-width:2;stroke-linecap:round;stroke-linejoin:bevel;stroke-miterlimit:4;stroke-dasharray:6, 6;stroke-dashoffset:0;stroke-opacity:1" />
    </pattern>
    <pattern
       inkscape:collect="always"
       xlink:href="#pattern5092-3"
       id="pattern5096-5"
       patternTransform="translate(400,952.36218)" />
    <pattern
       inkscape:collect="always"
       xlink:href="#pattern5088-6"
       id="pattern2980"
       patternTransform="translate(300,952.36218)" />
    <pattern
       inkscape:collect="always"
       xlink:href="#pattern5084-7"
       id="pattern2982"
       patternTransform="translate(200,952.36218)" />
    <pattern
       inkscape:collect="always"
       xlink:href="#pattern4361-36-5"
       id="pattern2984"
       patternTransform="translate(100,952.36218)" />
    <pattern
       patternUnits="userSpaceOnUse"
       width="100"
       height="100"
       patternTransform="translate(0,952.36218)"
       id="pattern2988">
      <rect
         y="0"
         x="0"
         height="100"
         width="100"
         id="rect2986"
         style="opacity:1;fill:#000000;fill-opacity:1;stroke:none;stroke-width:2;stroke-linecap:round;stroke-linejoin:bevel;stroke-miterlimit:4;stroke-dasharray:6, 6;stroke-dashoffset:0;stroke-opacity:1" />
    </pattern>
    <pattern
       inkscape:collect="always"
       xlink:href="#pattern5134"
       id="pattern2992"
       patternTransform="translate(300,1252.3622)" />
    <pattern
       inkscape:collect="always"
       xlink:href="#pattern5114"
       id="pattern2994"
       patternTransform="translate(300,1152.3622)" />
    <pattern
       inkscape:collect="always"
       xlink:href="#pattern5092-3"
       id="pattern2996"
       patternTransform="translate(300,1052.3622)" />
    <pattern
       inkscape:collect="always"
       xlink:href="#pattern5088-6"
       id="pattern2998"
       patternTransform="translate(300,952.36218)" />
    <pattern
       inkscape:collect="always"
       xlink:href="#pattern5084-7"
       id="pattern3000"
       patternTransform="translate(200,952.36218)" />
    <pattern
       inkscape:collect="always"
       xlink:href="#pattern4361-36-5"
       id="pattern3002"
       patternTransform="translate(100,952.36218)" />
    <pattern
       patternUnits="userSpaceOnUse"
       width="100"
       height="100"
       patternTransform="translate(0,952.36218)"
       id="pattern3006">
      <rect
         y="0"
         x="0"
         height="100"
         width="100"
         id="rect3004"
         style="opacity:1;fill:#000000;fill-opacity:1;stroke:none;stroke-width:2;stroke-linecap:round;stroke-linejoin:bevel;stroke-miterlimit:4;stroke-dasharray:6, 6;stroke-dashoffset:0;stroke-opacity:1" />
    </pattern>
    <pattern
       inkscape:collect="always"
       xlink:href="#pattern5130"
       id="pattern3010"
       patternTransform="translate(100,1252.3622)" />
    <pattern
       inkscape:collect="always"
       xlink:href="#pattern5110"
       id="pattern3012"
       patternTransform="translate(100,1152.3622)" />
    <pattern
       inkscape:collect="always"
       xlink:href="#pattern5084-7"
       id="pattern3014"
       patternTransform="translate(100,1052.3622)" />
    <pattern
       inkscape:collect="always"
       xlink:href="#pattern4361-36-5"
       id="pattern3016"
       patternTransform="translate(100,952.36218)" />
    <pattern
       patternUnits="userSpaceOnUse"
       width="100"
       height="100"
       patternTransform="translate(0,952.36218)"
       id="pattern3020">
      <rect
         y="0"
         x="0"
         height="100"
         width="100"
         id="rect3018"
         style="opacity:1;fill:#000000;fill-opacity:1;stroke:none;stroke-width:2;stroke-linecap:round;stroke-linejoin:bevel;stroke-miterlimit:4;stroke-dasharray:6, 6;stroke-dashoffset:0;stroke-opacity:1" />
    </pattern>
    <pattern
       patternUnits="userSpaceOnUse"
       width="100"
       height="100"
       patternTransform="translate(0,952.36218)"
       id="pattern3029">
      <rect
         y="0"
         x="0"
         height="100"
         width="100"
         id="rect3027"
         style="opacity:1;fill:#000000;fill-opacity:1;stroke:none;stroke-width:2;stroke-linecap:round;stroke-linejoin:bevel;stroke-miterlimit:4;stroke-dasharray:6, 6;stroke-dashoffset:0;stroke-opacity:1" />
    </pattern>
    <pattern
       inkscape:collect="always"
       xlink:href="#pattern5096-5"
       id="pattern3033"
       patternTransform="translate(400,1052.3622)" />
    <pattern
       inkscape:collect="always"
       xlink:href="#pattern5092-3"
       id="pattern3035"
       patternTransform="translate(400,952.36218)" />
    <pattern
       inkscape:collect="always"
       xlink:href="#pattern5088-6"
       id="pattern3037"
       patternTransform="translate(300,952.36218)" />
    <pattern
       inkscape:collect="always"
       xlink:href="#pattern5084-7"
       id="pattern3039"
       patternTransform="translate(200,952.36218)" />
    <pattern
       inkscape:collect="always"
       xlink:href="#pattern4361-36-5"
       id="pattern3041"
       patternTransform="translate(100,952.36218)" />
    <pattern
       patternUnits="userSpaceOnUse"
       width="100"
       height="100"
       patternTransform="translate(0,952.36218)"
       id="pattern3045">
      <rect
         y="0"
         x="0"
         height="100"
         width="100"
         id="rect3043"
         style="opacity:1;fill:#000000;fill-opacity:1;stroke:none;stroke-width:2;stroke-linecap:round;stroke-linejoin:bevel;stroke-miterlimit:4;stroke-dasharray:6, 6;stroke-dashoffset:0;stroke-opacity:1" />
    </pattern>
    <pattern
       inkscape:collect="always"
       xlink:href="#pattern5092-3"
       id="pattern3049"
       patternTransform="translate(300,1052.3622)" />
    <pattern
       inkscape:collect="always"
       xlink:href="#pattern5088-6"
       id="pattern3051"
       patternTransform="translate(300,952.36218)" />
    <pattern
       inkscape:collect="always"
       xlink:href="#pattern5084-7"
       id="pattern3053"
       patternTransform="translate(200,952.36218)" />
    <pattern
       inkscape:collect="always"
       xlink:href="#pattern4361-36-5"
       id="pattern3055"
       patternTransform="translate(100,952.36218)" />
    <pattern
       patternUnits="userSpaceOnUse"
       width="100"
       height="100"
       patternTransform="translate(0,952.36218)"
       id="pattern3059">
      <rect
         y="0"
         x="0"
         height="100"
         width="100"
         id="rect3057"
         style="opacity:1;fill:#000000;fill-opacity:1;stroke:none;stroke-width:2;stroke-linecap:round;stroke-linejoin:bevel;stroke-miterlimit:4;stroke-dasharray:6, 6;stroke-dashoffset:0;stroke-opacity:1" />
    </pattern>
    <pattern
       inkscape:collect="always"
       xlink:href="#pattern5084-7"
       id="pattern3063"
       patternTransform="translate(100,1052.3622)" />
    <pattern
       inkscape:collect="always"
       xlink:href="#pattern4361-36-5"
       id="pattern3065"
       patternTransform="translate(100,952.36218)" />
    <pattern
       patternUnits="userSpaceOnUse"
       width="100"
       height="100"
       patternTransform="translate(0,952.36218)"
       id="pattern3069">
      <rect
         y="0"
         x="0"
         height="100"
         width="100"
         id="rect3067"
         style="opacity:1;fill:#000000;fill-opacity:1;stroke:none;stroke-width:2;stroke-linecap:round;stroke-linejoin:bevel;stroke-miterlimit:4;stroke-dasharray:6, 6;stroke-dashoffset:0;stroke-opacity:1" />
    </pattern>
    <pattern
       inkscape:collect="always"
       xlink:href="#pattern4361-36-5"
       id="pattern3073"
       patternTransform="translate(0,1052.3622)" />
    <pattern
       patternUnits="userSpaceOnUse"
       width="100"
       height="100"
       patternTransform="translate(0,952.36218)"
       id="pattern3077">
      <rect
         y="0"
         x="0"
         height="100"
         width="100"
         id="rect3075"
         style="opacity:1;fill:#000000;fill-opacity:1;stroke:none;stroke-width:2;stroke-linecap:round;stroke-linejoin:bevel;stroke-miterlimit:4;stroke-dasharray:6, 6;stroke-dashoffset:0;stroke-opacity:1" />
    </pattern>
    <pattern
       inkscape:collect="always"
       xlink:href="#pattern5088-6"
       id="pattern3081"
       patternTransform="translate(300,952.36218)" />
    <pattern
       inkscape:collect="always"
       xlink:href="#pattern5084-7"
       id="pattern3083"
       patternTransform="translate(200,952.36218)" />
    <pattern
       inkscape:collect="always"
       xlink:href="#pattern4361-36-5"
       id="pattern3085"
       patternTransform="translate(100,952.36218)" />
    <pattern
       patternUnits="userSpaceOnUse"
       width="100"
       height="100"
       patternTransform="translate(0,952.36218)"
       id="pattern3089">
      <rect
         y="0"
         x="0"
         height="100"
         width="100"
         id="rect3087"
         style="opacity:1;fill:#000000;fill-opacity:1;stroke:none;stroke-width:2;stroke-linecap:round;stroke-linejoin:bevel;stroke-miterlimit:4;stroke-dasharray:6, 6;stroke-dashoffset:0;stroke-opacity:1" />
    </pattern>
    <pattern
       inkscape:collect="always"
       xlink:href="#pattern4361-36-5"
       id="pattern3093"
       patternTransform="translate(100,952.36218)" />
    <pattern
       patternUnits="userSpaceOnUse"
       width="100"
       height="100"
       patternTransform="translate(0,952.36218)"
       id="pattern3097">
      <rect
         y="0"
         x="0"
         height="100"
         width="100"
         id="rect3095"
         style="opacity:1;fill:#000000;fill-opacity:1;stroke:none;stroke-width:2;stroke-linecap:round;stroke-linejoin:bevel;stroke-miterlimit:4;stroke-dasharray:6, 6;stroke-dashoffset:0;stroke-opacity:1" />
    </pattern>
  </defs>
  <sodipodi:namedview
     pagecolor="#ffffff"
     bordercolor="#666666"
     borderopacity="1"
     objecttolerance="10"
     gridtolerance="10"
     guidetolerance="10"
     inkscape:pageopacity="0"
     inkscape:pageshadow="2"
     inkscape:window-width="1920"
     inkscape:window-height="1056"
     id="namedview5975"
     showgrid="false"
     inkscape:zoom="2.8284271"
     inkscape:cx="34.733507"
     inkscape:cy="34.45296"
     inkscape:window-x="0"
     inkscape:window-y="0"
     inkscape:window-maximized="1"
     inkscape:current-layer="svg5969"
     inkscape:snap-page="true" />
  <path
     inkscape:connector-curvature="0"
     style="display:inline;fill:#ff0183;fill-opacity:0.99607843;stroke:none;stroke-width:1.06666684"
     d="M 76.2,2.9999996 V 51.799999 H 125 V 2.9999996 Z m 0,48.7999994 H 2.9999995 v 24.4 H 51.8 V 125 H 76.2 Z M 82.3,9.0999996 h 36.6 V 45.699999 H 82.3 Z M 9.0999995,57.899999 H 70.1 V 118.9 H 57.9 V 70.099999 H 9.0999995 Z M 100.6,100.6 V 125 H 125 v -24.4 z m 6.1,6.1 h 12.2 v 12.2 h -12.2 z"
     id="path1802" />
</svg>
